R Lab 4 Solutions – R Math Camp
…
What are the key variables in the data set?

For the key variables, how are they coded, what is the extent of missing data for key variables, and how will I deal with this missing data?

Once you have done this (no need to type answers to these questions, but do answer them), create an analysis data set in which:

You keep only observations that have non-missing data for both GDP_1995 and GDP_2022. This will be the data set you will you for the remainder of this problem set, so assign it to an object you can use.

You transform the population variables so that they are expressed in millions of people (for example, 158,000,000 should become 158).

You transform the GDP variables so that they are expressed in millions of dollars  

This will be the data set you will you for the remainder of this problem set, so assign it to an object you can use. Now report the mean and the number of observations for GDP 2022 for this analysis data set. 

# A tibble: 173 × 7
   Country  `Country Code` Region GDP_1995 GDP_2022 POP_1995
   <chr>    <chr>          <chr>     <dbl>    <dbl>    <dbl>
 1 Albania  ALB            Europ…    4743.   14318.   3.19  
 2 Algeria  DZA            Middl…   81507.  179000   28.5   
 3 Andorra  AND            Europ…    1765.    3149.   0.0629
 4 Angola   AGO            Sub-S…   22469.   81810.  13.9   
 5 Antigua… ATG            Latin…     825.    1546.   0.0684
 6 Argenti… ARG            Latin…  348000   598000   34.9   
 7 Armenia  ARM            Europ…    3084.   14212.   3.32  
 8 Austral… AUS            East …  709000  1580000   18.0   
 9 Austria  AUT            Europ…  269000   425000    7.95  
10 Azerbai… AZE            Europ…    8473.   56692.   7.68  
# ℹ 163 more rows
# ℹ 1 more variable: POP_2022 <dbl>
…
[1] 2388.862

Answer: The average GDP per capita across Sub-Saharan Africa in 2022 was 2388.8623609 million USD per person.

(C2) Calculate the increase in GDP per capita for each country in Sub-Saharan Africa from 1995 to 2022 (in % change). Report the average increase in GPD per capita from 1995 to 2022 across Sub-Saharan Africa

Answer: The average increase in GDP per capita from 1995 to 2022 across Sub-Saharan Africa was 55.4901874 million USD per person.

(C3) Rank all the countries of Sub-Saharan Africa in descending order first in terms of GPD per capita in 2022 and then in terms of GDP per capita growth from 1995 to 2022 (in % change). Report:

in which place Rwanda ends up in each case

two to five countries that are in a similar position (in terms of GDP per capita in 2022 and growth from 1995 to

# A tibble: 43 × 10
   Country  `Country Code` Region GDP_1995 GDP_2022 POP_1995
   <chr>    <chr>          <chr>     <dbl>    <dbl>    <dbl>
 1 Seychel… SYC            Sub-S…     718.    1713.   0.0753
 2 Mauriti… MUS            Sub-S…    5121.   13314.   1.12  
 3 Botswana BWA            Sub-S…    6593.   17510.   1.54  
 4 Gabon    GAB            Sub-S…    9564.   15867.   1.12  
 5 South A… ZAF            Sub-S…  193000   360000   44.0   
 6 Equator… GNQ            Sub-S…     353.    9834.   0.561 
 7 Namibia  NAM            Sub-S…    4719.   11187.   1.61  
 8 Eswatini SWZ            Sub-S…    2159.    4861.   0.954 
 9 Cabo Ve… CPV            Sub-S…     522.    2161.   0.411 
10 Nigeria  NGA            Sub-S…  155000   535000  108.    
# ℹ 33 more rows
# ℹ 4 more variables: POP_2022 <dbl>, gdp_pc_1995 <dbl>,
#   gdp_pc_2022 <dbl>, perc_change <dbl>

# A tibble: 43 × 10
   Country  `Country Code` Region GDP_1995 GDP_2022 POP_1995
   <chr>    <chr>          <chr>     <dbl>    <dbl>    <dbl>
 1 Equator… GNQ            Sub-S…     353.    9834.    0.561
 2 Ethiopia ETH            Sub-S…   13897.  106000    57.5  
 3 Rwanda   RWA            Sub-S…    1733.   12956.    5.69 
 4 Cabo Ve… CPV            Sub-S…     522.    2161.    0.411
 5 Mozambi… MOZ            Sub-S…    3394.   19146.   15.6  
 6 Mauriti… MUS            Sub-S…    5121.   13314.    1.12 
 7 Ghana    GHA            Sub-S…   16239.   68292.   17.4  
 8 Uganda   UGA            Sub-S…    9118.   44173.   20.7  
 9 Tanzania TZA            Sub-S…   15016.   67104.   30.6  
10 Burkina… BFA            Sub-S…    3686.   16589.   10.4  
# ℹ 33 more rows
# ℹ 4 more variables: POP_2022 <dbl>, gdp_pc_1995 <dbl>,
#   gdp_pc_2022 <dbl>, perc_change <dbl>
…
